Project 1: Exploratory Data Analysis
…
corr_mat <- join_data %>% select_if(is.numeric) %>% cor(use = "pair")
join_data %>% arrange(-Happiness_Rank) %>% select(1, Happiness_Rank, exp_domestic_fund) 

## # A tibble: 221 x 3
##    Country                     Happiness_Rank exp_domestic_fund
##    <chr>                                <dbl>             <dbl>
##  1 Burundi                                157              29.1
##  2 Syrian Arab Republic                   156             NaN  
##  3 Togo                                   155              20  
##  4 Afghanistan                            154               5.1
##  5 Benin                                  153              20.5
##  6 Rwanda                                 152              33.9
##  7 Guinea                                 151              12.3
##  8 Liberia                                150              14.2
##  9 United Republic of Tanzania            149              40.6
## 10 Madagascar                             148              47.7
## # … with 211 more rows

join_data %>% arrange(-exp_pct_GDP) %>% select(1, exp_pct_GDP, nur_per1000)

## # A tibble: 221 x 3
##    Country                  exp_pct_GDP nur_per1000
##    <chr>                          <dbl>       <dbl>
##  1 Marshall Islands                23.3         3.5
##  2 United States of America        17.1         8.6
##  3 Sierra Leone                    16.5         1  
##  4 Tuvalu                          15.5         3.8
##  5 Fed. Sts. Micronesia            12.6         3.3
##  6 Cuba                            12.2         7.8
##  7 Switzerland                     12.2        17.3
##  8 Kiribati                        11.9         4.8
##  9 Brazil                          11.8         9.7
## 10 Palau                           11.7         5.3
## # … with 211 more rows
…
joined_professionals <- join_data %>% pivot_longer(c("phys_per1000", "nur_per1000", "spec_per1000"), 
                           names_to = "med_professional", values_to = "num_professionals")
joined_obesity <- join_data %>% pivot_longer(c(male_obesity, female_obesity), 
                                             names_to = "sex", values_to = "obesity_prevalance") 
joined_professionals %>% pivot_wider(names_from = "med_professional", values_from = "num_professionals") 

## # A tibble: 221 x 18
##    Country Region avg_obesity male_obesity female_obesity exp_pct_GDP
##    <chr>   <chr>        <dbl>        <dbl>          <dbl>       <dbl>
##  1 Afghan… South…        4.45          2.7            6.2        10.2
##  2 Albania Centr…       22.4          21.9           22.8         6.7
##  3 Algeria Middl…       26.7          19.4           34           6.6
##  4 Andorra <NA>         28            27.9           28.1        10.4
##  5 Angola  Sub-S…        6.75          3.5           10           2.9
##  6 Antigu… <NA>         19            11.7           26.3         4.3
##  7 Argent… Latin…       28.5          27.4           29.6         7.5
##  8 Armenia Centr…       20.8          17.2           24.5         9.9
##  9 Austra… Austr…       30.4          30.7           30.1         9.3
## 10 Austria Weste…       22            23.4           20.6        10.4
## # … with 211 more rows, and 12 more variables: exp_domestic_fund <dbl>,
## #   out_pocket <dbl>, exp_percapita_USD <dbl>, exp_percapita_PPP <dbl>,
## #   exp_ext_fund <dbl>, birth_reg <dbl>, death_reg <dbl>, Happiness_Rank <dbl>,
## #   Happiness_Score <dbl>, phys_per1000 <dbl>, nur_per1000 <dbl>,
## #   spec_per1000 <dbl>
…
